[gd_scene load_steps=2 format=3 uid="uid://dlklyd5oe7ts1"]

[ext_resource type="Script" path="res://Lose.cs" id="1_7taqm"]

[node name="Lose" type="Control"]
layout_mode = 3
anchors_preset = 15
anchor_right = 1.0
anchor_bottom = 1.0
grow_horizontal = 2
grow_vertical = 2
script = ExtResource("1_7taqm")

[node name="VBoxContainer" type="VBoxContainer" parent="."]
layout_mode = 1
anchors_preset = 8
anchor_left = 0.5
anchor_top = 0.5
anchor_right = 0.5
anchor_bottom = 0.5
offset_left = -20.0
offset_top = -20.0
offset_right = 20.0
offset_bottom = 20.0
grow_horizontal = 2
grow_vertical = 2

[node name="Label" type="Label" parent="VBoxContainer"]
layout_mode = 2
text = "Lose"

[node name="Button" type="Button" parent="VBoxContainer"]
layout_mode = 2
text = "Retry"
